<?xml version="1.0" encoding="UTF-8" standalone="no"?>
<svg
   xmlns:dc="http://purl.org/dc/elements/1.1/"
   xmlns:cc="http://creativecommons.org/ns#"
   xmlns:rdf="http://www.w3.org/1999/02/22-rdf-syntax-ns#"
   xmlns:svg="http://www.w3.org/2000/svg"
   xmlns="http://www.w3.org/2000/svg"
   xmlns:sodipodi="http://sodipodi.sourceforge.net/DTD/sodipodi-0.dtd"
   xmlns:inkscape="http://www.inkscape.org/namespaces/inkscape"
   height="37.795"
   width="37.795"
   version="1.1"
   id="svg8"
   sodipodi:docname="help-primary.svg"
   inkscape:version="0.92.4 5da689c313, 2019-01-14">
  <metadata
     id="metadata14">
    <rdf:RDF>
      <cc:Work
         rdf:about="">
        <dc:format>image/svg+xml</dc:format>
        <dc:type
           rdf:resource="http://purl.org/dc/dcmitype/StillImage" />
      </cc:Work>
    </rdf:RDF>
  </metadata>
  <defs
     id="defs12" />
  <sodipodi:namedview
     pagecolor="#ffffff"
     bordercolor="#666666"
     borderopacity="1"
     objecttolerance="10"
     gridtolerance="10"
     guidetolerance="10"
     inkscape:pageopacity="0"
     inkscape:pageshadow="2"
     inkscape:window-width="2717"
     inkscape:window-height="1925"
     id="namedview10"
     showgrid="false"
     inkscape:zoom="24.97685"
     inkscape:cx="17.223998"
     inkscape:cy="10.528074"
     inkscape:window-x="0"
     inkscape:window-y="49"
     inkscape:window-maximized="0"
     inkscape:current-layer="svg8" />
  <circle
     cx="19.038"
     cy="18.798"
     r="15.5"
     fill="#006ee3"
     fill-opacity=".941"
     id="circle2"
     style="fill:#0060c0;fill-opacity:1" />
  <g
     aria-label="?"
     style="font-style:normal;font-variant:normal;font-weight:normal;font-stretch:normal;font-size:25.69844246px;line-height:1.25;font-family:Arial;-inkscape-font-specification:Arial;font-variant-ligatures:normal;font-variant-position:normal;font-variant-caps:normal;font-variant-numeric:normal;font-variant-alternates:normal;font-feature-settings:normal;text-indent:0;text-align:center;text-decoration:none;text-decoration-line:none;text-decoration-style:solid;text-decoration-color:#000000;letter-spacing:0px;word-spacing:0px;text-transform:none;writing-mode:lr-tb;direction:ltr;text-orientation:mixed;dominant-baseline:auto;baseline-shift:baseline;text-anchor:middle;white-space:normal;shape-padding:0;opacity:1;vector-effect:none;fill:#ffffff;fill-opacity:1;stroke:none;stroke-width:1.60615265;stroke-linecap:butt;stroke-linejoin:miter;stroke-miterlimit:4;stroke-dasharray:none;stroke-dashoffset:0;stroke-opacity:1"
     id="text11">
    <path
       d="m 17.372645,22.720474 q 0,-1.75673 0.426634,-2.798219 0.426635,-1.04149 1.555961,-2.045335 1.141874,-1.016394 1.518316,-1.643797 0.376442,-0.639951 0.376442,-1.342643 0,-2.120624 -1.957498,-2.120624 -0.928557,0 -1.493221,0.577211 -0.552115,0.564663 -0.577211,1.568509 h -3.638939 q 0.0251,-2.396681 1.543412,-3.751872 1.530864,-1.3551916 4.165959,-1.3551916 2.66019,0 4.128314,1.2924506 1.468124,1.279903 1.468124,3.626392 0,1.066586 -0.476827,2.020239 -0.476826,0.941105 -1.668893,2.095527 l -1.016393,0.966201 q -0.953654,0.916009 -1.091682,2.14572 l -0.05019,0.765432 z m -0.363894,3.852257 q 0,-0.840721 0.564663,-1.380288 0.577211,-0.552115 1.468124,-0.552115 0.890913,0 1.455576,0.552115 0.577211,0.539567 0.577211,1.380288 0,0.828172 -0.564663,1.367739 -0.552115,0.539567 -1.468124,0.539567 -0.916009,0 -1.480672,-0.539567 -0.552115,-0.539567 -0.552115,-1.367739 z"
       style="font-style:normal;font-variant:normal;font-weight:bold;font-stretch:normal;font-family:Roboto;-inkscape-font-specification:'Roboto Bold';stroke-width:1.60615265;fill:#ffffff"
       id="path13" />
  </g>
</svg>
