<?xml version="1.0" encoding="UTF-8" standalone="no"?>
<svg
   xmlns:dc="http://purl.org/dc/elements/1.1/"
   xmlns:cc="http://creativecommons.org/ns#"
   xmlns:rdf="http://www.w3.org/1999/02/22-rdf-syntax-ns#"
   xmlns:svg="http://www.w3.org/2000/svg"
   xmlns="http://www.w3.org/2000/svg"
   xmlns:sodipodi="http://sodipodi.sourceforge.net/DTD/sodipodi-0.dtd"
   xmlns:inkscape="http://www.inkscape.org/namespaces/inkscape"
   height="37.795"
   width="37.795"
   version="1.1"
   id="svg8"
   sodipodi:docname="image.svg"
   inkscape:version="0.92.4 5da689c313, 2019-01-14">
  <metadata
     id="metadata14">
    <rdf:RDF>
      <cc:Work
         rdf:about="">
        <dc:format>image/svg+xml</dc:format>
        <dc:type
           rdf:resource="http://purl.org/dc/dcmitype/StillImage" />
        <dc:title></dc:title>
      </cc:Work>
    </rdf:RDF>
  </metadata>
  <defs
     id="defs12" />
  <sodipodi:namedview
     pagecolor="#ffffff"
     bordercolor="#666666"
     borderopacity="1"
     objecttolerance="10"
     gridtolerance="10"
     guidetolerance="10"
     inkscape:pageopacity="0"
     inkscape:pageshadow="2"
     inkscape:window-width="3840"
     inkscape:window-height="2085"
     id="namedview10"
     showgrid="false"
     inkscape:zoom="8.83065"
     inkscape:cx="27.044461"
     inkscape:cy="2.2751983"
     inkscape:window-x="0"
     inkscape:window-y="38"
     inkscape:window-maximized="1"
     inkscape:current-layer="svg8" />
  <path
     d="M19.06 11.421v14.753"
     fill="none"
     stroke="#fff"
     id="path4" />
  <path
     d="M19.06 11.421v14.753m-7.376-7.376h14.752"
     fill="none"
     stroke="#fff"
     stroke-width="3"
     stroke-linecap="round"
     id="path6" />
  <path
     style="fill:#000000;stroke:#000000;stroke-width:0.5378201;stroke-miterlimit:4;stroke-dasharray:none;stroke-opacity:1"
     d="m 11.135273,33.590149 c -0.0537,-0.0112 -0.31729,-0.05659 -0.585764,-0.100782 C 8.0811619,33.083092 5.8294417,31.131802 4.9815338,28.664273 4.5804312,27.497009 4.6042539,28.059091 4.5789526,19.164853 4.5632007,13.631396 4.5780958,10.852598 4.6254478,10.485673 4.7367048,9.6235048 4.9327149,8.9602584 5.3068736,8.1799063 6.3927892,5.9151033 8.4419112,4.4027193 10.907472,4.0463121 c 0.616271,-0.089086 15.850187,-0.089086 16.466455,0 1.600295,0.2313294 3.076755,0.9752888 4.197969,2.1152739 0.848725,0.8629321 1.608385,2.1802348 1.883026,3.2652953 0.265012,1.0470107 0.271518,1.3030547 0.247528,9.7379717 -0.0208,7.313444 -0.03413,8.184353 -0.131263,8.58195 -0.722243,2.956225 -2.724009,4.991519 -5.631875,5.726202 -0.392459,0.09915 -1.234458,0.111315 -8.570816,0.123773 -4.474579,0.0079 -8.179533,0.0049 -8.233227,-0.0069 z m 16.629166,-2.239025 c 0.576597,-0.173746 1.509977,-0.655592 1.93444,-0.998628 0.54023,-0.436597 1.061156,-1.109708 1.385976,-1.790881 0.561265,-1.177013 0.519588,-0.394112 0.519588,-9.760722 0,-7.862333 -0.0065,-8.327805 -0.119685,-8.735019 C 31.039357,8.4651573 30.049496,7.260897 28.632689,6.5960579 27.562632,6.0939312 28.264395,6.1285004 19.140703,6.1285004 c -9.123692,0 -8.421929,-0.034568 -9.491987,0.4675575 -1.4168063,0.6648391 -2.4066649,1.8690994 -2.8520666,3.4698161 -0.113309,0.407214 -0.1196847,0.872686 -0.1196847,8.735019 0,9.36661 -0.04168,8.583709 0.5195883,9.760722 0.3248203,0.681173 0.845744,1.354284 1.3859735,1.790881 0.6345904,0.512854 1.7252865,0.992145 2.5202045,1.107465 0.107389,0.01558 3.812341,0.02395 8.233225,0.01858 7.497463,-0.0091 8.064234,-0.01767 8.428483,-0.12742 z M 18.359687,26.174 c -0.08949,-0.01613 -0.338442,-0.06027 -0.553222,-0.09813 -1.367909,-0.24115 -2.755281,-0.990868 -3.800839,-2.053932 -1.037454,-1.05482 -1.712454,-2.336915 -2.034578,-3.864468 -0.108321,-0.513671 -0.108321,-2.199474 0,-2.713148 0.645468,-3.060905 2.833352,-5.285719 5.835417,-5.933917 0.50406,-0.108838 2.164416,-0.108838 2.668476,0 3.002068,0.648198 5.189948,2.873012 5.835419,5.933917 0.04644,0.220236 0.08373,0.824336 0.08373,1.356574 0,0.532238 -0.03728,1.13634 -0.08373,1.356574 -0.636472,3.018234 -2.793362,5.248047 -5.705248,5.898138 -0.444116,0.09915 -1.920043,0.176968 -2.245425,0.118392 z m 1.620662,-2.148881 c 1.997338,-0.329508 3.672723,-1.880588 4.213342,-3.900739 0.160181,-0.598559 0.160181,-2.048415 0,-2.646974 -0.399226,-1.4918 -1.447555,-2.778723 -2.802504,-3.44034 -0.818185,-0.399517 -1.236702,-0.490787 -2.250484,-0.490787 -1.013779,0 -1.432298,0.09127 -2.250482,0.490787 -1.354953,0.661617 -2.403281,1.94854 -2.802505,3.44034 -0.160182,0.598559 -0.160182,2.048415 0,2.646974 0.708663,2.648092 3.257646,4.335438 5.892633,3.900739 z m 6.859877,-11.696135 c -0.70702,-0.256857 -1.157553,-0.739935 -1.364225,-1.462758 -0.271858,-0.9508103 0.222524,-2.0081648 1.143826,-2.4463492 0.290626,-0.1382252 0.461556,-0.1729292 0.851731,-0.1729292 0.842425,0 1.521445,0.4399644 1.879235,1.2176357 0.351203,0.7633537 0.176449,1.7493267 -0.416996,2.3527067 -0.529366,0.53823 -1.42081,0.756109 -2.093571,0.511694 z"
     id="path844"
     inkscape:connector-curvature="0" />
</svg>
