<?xml version="1.0" encoding="UTF-8" standalone="no"?>
<svg
   xmlns:dc="http://purl.org/dc/elements/1.1/"
   xmlns:cc="http://creativecommons.org/ns#"
   xmlns:rdf="http://www.w3.org/1999/02/22-rdf-syntax-ns#"
   xmlns:svg="http://www.w3.org/2000/svg"
   xmlns="http://www.w3.org/2000/svg"
   xmlns:sodipodi="http://sodipodi.sourceforge.net/DTD/sodipodi-0.dtd"
   xmlns:inkscape="http://www.inkscape.org/namespaces/inkscape"
   width="16"
   height="16"
   version="1.1"
   id="svg4"
   sodipodi:docname="type-text.svg"
   inkscape:version="1.0.1 (3bc2e813f5, 2020-09-07)">
  <metadata
     id="metadata10">
    <rdf:RDF>
      <cc:Work
         rdf:about="">
        <dc:format>image/svg+xml</dc:format>
        <dc:type
           rdf:resource="http://purl.org/dc/dcmitype/StillImage" />
      </cc:Work>
    </rdf:RDF>
  </metadata>
  <defs
     id="defs8" />
  <sodipodi:namedview
     pagecolor="#ffffff"
     bordercolor="#666666"
     borderopacity="1"
     objecttolerance="10"
     gridtolerance="10"
     guidetolerance="10"
     inkscape:pageopacity="0"
     inkscape:pageshadow="2"
     inkscape:window-width="1060"
     inkscape:window-height="761"
     id="namedview6"
     showgrid="false"
     inkscape:zoom="5.2259611"
     inkscape:cx="-9.8845514"
     inkscape:cy="31.237707"
     inkscape:window-x="0"
     inkscape:window-y="27"
     inkscape:window-maximized="0"
     inkscape:current-layer="svg4" />
  <path
     opacity=".75"
     d="M 1.4545455,15.998667 C 0.64872728,15.998667 0,15.404 0,14.665333 V 1.3333333 C 0,0.59466667 0.64872728,0 1.4545455,0 H 14.545455 C 15.351273,0 16,0.59466667 16,1.3333333 V 14.666667 C 16,15.404 15.351273,16 14.545455,16 Z m 0,-1.333334 H 14.545455 V 1.3333333 H 1.4545455 Z M 2.9090909,11.998667 V 10.665333 H 13.090909 v 1.333334 z m 0,-2.666667 V 7.9986667 H 13.090909 V 9.332 Z m 0,-2.6666667 V 5.332 H 13.090909 v 1.3333333 z m 0,-2.6666666 V 2.6653333 H 13.090909 v 1.3333334 z"
     id="path2"
     style="opacity:1;fill:#000000;fill-opacity:1;stroke-width:1.39262" />
</svg>
